module goshop

go 1.15

require (
	github.com/dgrijalva/jwt-go v3.2.0+incompatible
	github.com/getsentry/sentry-go v0.9.0
	github.com/gin-gonic/gin v1.6.3
	github.com/go-playground/validator/v10 v10.4.1
	github.com/golang/mock v1.1.1
	github.com/golang/protobuf v1.4.3 // indirect
	github.com/joho/godotenv v1.3.0
	github.com/json-iterator/go v1.1.10 // indirect
	github.com/leodido/go-urn v1.2.1 // indirect
	github.com/modern-go/concurrent v0.0.0-20180306012644-bacd9c7ef1dd // indirect
	github.com/modern-go/reflect2 v1.0.1 // indirect
	github.com/ugorji/go v1.2.3 // indirect
	github.com/unrolled/secure v1.0.8
	golang.org/x/crypto v0.0.0-20201221181555-eec23a3978ad
	golang.org/x/sys v0.0.0-20210110051926-789bb1bd4061 // indirect
	google.golang.org/protobuf v1.25.0 // indirect
	gopkg.in/yaml.v2 v2.4.0 // indirect
	gorm.io/driver/mysql v1.0.3
	gorm.io/gorm v1.20.10
)
